…
``` r
# \donttest{
scb <- px_api("scb", lang = "en")
if (px_available(scb)) {

  # Server-side search
  get_tables(scb, query = "population")

  # Fetch specific tables by ID
  get_tables(scb, id = c("TAB638", "TAB1278"))

  # Tables updated in the last 30 days
  get_tables(scb, updated_since = 30)
}# }
#> # A tibble: 100 × 13
#>    id      title description category updated first_period last_period time_unit
#>    <chr>   <chr> <chr>       <chr>    <chr>   <chr>        <chr>       <chr>    
#>  1 TAB1391 Corp… ""          public   2026-0… 1998K2       2025K4      Quarterly
#>  2 TAB6726 Ente… ""          public   2026-0… 2025         2025        Annual   
#>  3 TAB1872 Indu… ""          public   2026-0… 2000M01      2026M01     Monthly  
#>  4 TAB1411 Corp… ""          public   2026-0… 1997K1       2025K4      Quarterly
#>  5 TAB1710 Orde… ""          public   2026-0… 2000M01      2026M01     Monthly  
#>  6 TAB1693 Turn… ""          public   2026-0… 2000M01      2026M01     Monthly  
#>  7 TAB4894 Prod… ""          public   2026-0… 2010M01      2026M01     Monthly  
#>  8 TAB4810 Prod… ""          public   2026-0… 2010K1       2025K4      Quarterly
#>  9 TAB6343 Priv… ""          public   2026-0… 2022K1       2025K4      Quarterly
#> 10 TAB6587 Priv… ""          public   2026-0… 2022K1       2025K4      Quarterly
#> # ℹ 90 more rows
#> # ℹ 5 more variables: variables <list>, subject_code <chr>, subject_path <chr>,
#> #   source <chr>, discontinued <lgl>
```
