…
#>   Estimated cells: 93024 / 150000 (62% of limit)
#> 
#>   Region = <eliminated>
#>     eliminated (312 values available)
#>   Civilstand = "*"
#>     all 4 values (expanded by maximize_selection)
#>   Alder = "*"
#>     all 102 values (expanded by maximize_selection)
#>   Kon = "*"
#>     all 2 values (expanded by maximize_selection)
#>   ContentsCode = "*"
#>     all 2 content variable(s)
#>   Tid = "*"
#>     all 57 values (expanded by maximize_selection)
#> # A tibble: 93,024 × 12
#>    table_id Civilstand Civilstand_text Alder Alder_text Kon   Kon_text
#>    <chr>    <chr>      <chr>           <chr> <chr>      <chr> <chr>   
#>  1 TAB638   OG         single          0     0 years    1     men     
#>  2 TAB638   OG         single          0     0 years    1     men     
#>  3 TAB638   OG         single          0     0 years    1     men     
#>  4 TAB638   OG         single          0     0 years    1     men     
#>  5 TAB638   OG         single          0     0 years    1     men     
#>  6 TAB638   OG         single          0     0 years    1     men     
#>  7 TAB638   OG         single          0     0 years    1     men     
#>  8 TAB638   OG         single          0     0 years    1     men     
#>  9 TAB638   OG         single          0     0 years    1     men     
#> 10 TAB638   OG         single          0     0 years    1     men     
#> # ℹ 93,014 more rows
#> # ℹ 5 more variables: ContentsCode <chr>, ContentsCode_text <chr>, Tid <chr>,
#> #   Tid_text <chr>, value <dbl>
```
